Вихідна вибірка:
[6, 2, 12, 5, 5, 4, 4, 2, 7, 2, 5, 0, 3, 5, 4, 4, 3, 2, 5, 5, 4, 6, 3, 5, 3, 6, 6, 3, 4, 6, 0, 8, 4, 5, 4, 7, 4, 6, 8, 4, 5, 4, 2, 5, 8, 5, 4, 10, 6, 9]
Значення: 12; Груба помилка: 3.1872108804821506
Значення: 10; Груба помилка: 2.3043269800715827


Змінюємо мінімальне значення у вибірці на: 13
Значення: 12; Груба помилка: 2.85130983524841
Значення: 13; Груба помилка: 3.2609807885886988


Змінюємо мінімальне значення у вибірці на: 16
Значення: 12; Груба помилка: 2.5913493933509453
Значення: 16; Груба помилка: 4.093580925728305


Змінюємо мінімальне значення у вибірці на: 26
Значення: 26; Груба помилка: 5.652700251581377
